<?xml version="1.0" encoding="UTF-8"?>
<!-- Created with Inkscape (http://www.inkscape.org/) -->
<svg width="672" height="240" version="1.1" viewBox="0 0 672 240" xmlns="http://www.w3.org/2000/svg">
 <path transform="scale(1,-1)" d="m569.26-141.73a90 90 0 0 1-44.866 101.09 90 90 0 0 1-109-18.742 90 90 0 0 1-8.5231-110.27 90 90 0 0 1 104.83-35.27z" fill="#f60" fill-rule="evenodd" stroke="#000" stroke-linejoin="round" stroke-width="2" style="paint-order:normal"/>
 <path transform="scale(1,-1)" d="m277.4-141.74a90 90 0 0 1-44.866 101.09 90 90 0 0 1-109-18.742 90 90 0 0 1-8.5231-110.27 90 90 0 0 1 104.83-35.27" fill="#f60" fill-rule="evenodd" stroke="#000" stroke-linejoin="round" stroke-width="2" style="paint-order:normal"/>
 <style>@import './cursors.css';</style>
 <style>@import './cursors.css';</style>
 <path d="m331 127h-17.463v-14h17.463v-8.8333s27.471 15.368 27.471 15.833-27.471 15.833-27.471 15.833z" fill="none" stroke="#000" stroke-width="2"/>
</svg>
