<?xml version="1.0" encoding="UTF-8"?>
<!-- Created with Inkscape (http://www.inkscape.org/) -->
<svg width="672" height="230" version="1.1" viewBox="0 0 672 230" xmlns="http://www.w3.org/2000/svg">
 <rect x="126" y="14.5" width="180" height="180" fill="#f60" fill-opacity=".99216"/>
 <rect x="366" y="14.5" width="90" height="180" fill="#f60" fill-opacity=".99216"/>
 <circle cx="306" cy="194.5" r="20" fill="none" stroke="#000" stroke-width="2"/>
 <rect x="456" y="14.5" width="90" height="180" fill="#ffb380" fill-opacity=".99216"/>
 <circle cx="456" cy="194.5" r="20" fill="none" stroke="#000" stroke-width="2"/>
 <path d="m509.62 201.18h25.463v-14h-25.463v-8.8333s-27.471 15.368-27.471 15.833 27.471 15.833 27.471 15.833z"/>
</svg>
