<?xml version="1.0" encoding="UTF-8" standalone="no"?>
<!-- Created with Inkscape (http://www.inkscape.org/) -->

<svg
   width="193.72328"
   height="105.02449"
   viewBox="0 0 51.255953 27.78773"
   version="1.1"
   id="svg26344"
   xmlns="http://www.w3.org/2000/svg"
   xmlns:svg="http://www.w3.org/2000/svg">
  <defs
     id="defs26341">
    <rect
       x="129.31641"
       y="281.29651"
       width="181.30959"
       height="99.986916"
       id="rect2101" />
  </defs>
  <g
     id="layer1"
     transform="translate(-27.364473,-68.292596)">
    <text
       xml:space="preserve"
       transform="matrix(0.26458333,0,0,0.26458333,-4.3253921,-4.4437118)"
       id="text2099"
       style="font-size:18.6667px;line-height:1.25;font-family:Lato;-inkscape-font-specification:Lato;text-align:start;white-space:pre;shape-inside:url(#rect2101)"
       x="0.55200166"
       y="0"><tspan
         x="129.31641"
         y="298.65691"
         id="tspan7436">Changing the kerning </tspan><tspan
         x="129.31641"
         y="321.99028"
         id="tspan7442"><tspan
           style="letter-spacing:0.52px"
           id="tspan7438">allows you to create</tspan><tspan
           dx="0.51999187"
           id="tspan7440"> </tspan></tspan><tspan
         x="129.31641"
         y="345.32365"
         id="tspan7448"><tspan
           style="letter-spacing:1.74px"
           id="tspan7444">more elegant text</tspan><tspan
           dx="1.7400036"
           id="tspan7446"> </tspan></tspan><tspan
         x="129.31641"
         y="368.65703"
         id="tspan7450">blocks.</tspan></text>
  </g>
</svg>
