<?xml version="1.0" encoding="UTF-8" standalone="no"?>
<svg xmlns:rdf="http://www.w3.org/1999/02/22-rdf-syntax-ns#" xmlns="http://www.w3.org/2000/svg" version="1.1" xmlns:cc="http://creativecommons.org/ns#" xmlns:xlink="http://www.w3.org/1999/xlink" viewBox="0 0 16 16" xmlns:dc="http://purl.org/dc/elements/1.1/">
<metadata>
<rdf:RDF>
<cc:Work rdf:about="">
<dc:format>image/svg+xml</dc:format>
<dc:type rdf:resource="http://purl.org/dc/dcmitype/StillImage"/>
</cc:Work>
</rdf:RDF>
</metadata>
<defs>
<radialGradient id="a" cx="0" gradientUnits="userSpaceOnUse" cy="0" r="4">
<stop stop-color="#73d216" offset="0"/>
<stop stop-color="#4e9a06" offset="1"/>
</radialGradient>
<circle id="b" r="4" stroke="#3a7304" fill="url(#a)"/>
</defs>
<rect stroke-linejoin="round" height="13" width="2" stroke="gray" y="1.5" x="4.5" fill="none"/>
<use xlink:href="#b" transform="translate(5.5,8)"/>
</svg>
