<?xml version="1.0" encoding="UTF-8" standalone="no"?>
<svg xmlns:rdf="http://www.w3.org/1999/02/22-rdf-syntax-ns#" xmlns="http://www.w3.org/2000/svg" version="1.1" xmlns:cc="http://creativecommons.org/ns#" xmlns:xlink="http://www.w3.org/1999/xlink" viewBox="0 0 24.001159 24" xmlns:dc="http://purl.org/dc/elements/1.1/">
<metadata>
<rdf:RDF>
<cc:Work rdf:about="">
<dc:format>image/svg+xml</dc:format>
<dc:type rdf:resource="http://purl.org/dc/dcmitype/StillImage"/>
</cc:Work>
</rdf:RDF>
</metadata>
<defs>
<linearGradient id="a" y2="220.3475" xlink:href="#d" gradientUnits="userSpaceOnUse" x2="18.5289" gradientTransform="matrix(1.505077 0 0 .598412 962.6137 403.1414)" y1="213.6631" x1="15.24248"/>
<linearGradient id="b" y2="215.0088" xlink:href="#d" gradientUnits="userSpaceOnUse" x2="18.70757" gradientTransform="matrix(1.999772 0 0 .998752 953.4881 316.2596)" y1="218.5568" x1="20.10132"/>
<linearGradient id="c" y2="209.2774" gradientUnits="userSpaceOnUse" x2="14.01084" gradientTransform="matrix(1.760936 0 0 .714541 964.9956 383.6551)" y1="203.3658" x1="10.04167">
<stop stop-color="#5a5a5a" offset="0"/>
<stop offset="1"/>
</linearGradient>
<linearGradient id="d">
<stop stop-color="#fff" offset="0"/>
<stop stop-color="#98b6d3" offset="1"/>
</linearGradient>
</defs>
<g transform="matrix(0,1,1,0,-527.99884,-1038)">
<rect style="color:#000000" height="24" width="24" y="528" x="982" stroke-width=".531496" fill="none"/>
<g stroke-linejoin="round" stroke-miterlimit="0" transform="translate(59.000001 -2.00128)">
<rect style="color:#000000" height="5.001156" width="14.08517" stroke="url(#c)" y="530.5001" x="983.5" stroke-width="1.0000023" fill="none"/>
<rect style="color:#000000" fill-rule="evenodd" height="3.000032" width="12.00008" stroke="url(#a)" stroke-linecap="round" y="531.5" x="984.501" stroke-width="1.0000024" fill="url(#b)"/>
</g>
<g stroke-linejoin="round" stroke-miterlimit="0" transform="translate(59.000001 -2.00128)">
<rect style="color:#000000" height="5.001156" width="14.08517" stroke="url(#c)" y="530.5001" x="983.5" stroke-width="1.0000023" fill="none"/>
<rect style="color:#000000" fill-rule="evenodd" height="3.000032" width="12.00008" stroke="url(#a)" stroke-linecap="round" y="531.5" x="984.501" stroke-width="1.0000024" fill="url(#b)"/>
</g>
<g stroke-linejoin="round" stroke-miterlimit="0" transform="translate(59.000001 -2.00128)">
<rect style="color:#000000" height="5.001156" width="14.08517" stroke="url(#c)" y="530.5001" x="983.5" stroke-width="1.0000023" fill="none"/>
<rect style="color:#000000" fill-rule="evenodd" height="3.000032" width="12.00008" stroke="url(#a)" stroke-linecap="round" y="531.5" x="984.501" stroke-width="1.0000024" fill="url(#b)"/>
</g>
</g>
</svg>
