<?xml version="1.0" encoding="UTF-8" standalone="no"?>
<svg xmlns:rdf="http://www.w3.org/1999/02/22-rdf-syntax-ns#" xmlns="http://www.w3.org/2000/svg" version="1.1" xmlns:cc="http://creativecommons.org/ns#" xmlns:xlink="http://www.w3.org/1999/xlink" viewBox="0 0 24 24.00018" xmlns:dc="http://purl.org/dc/elements/1.1/">
<metadata>
<rdf:RDF>
<cc:Work rdf:about="">
<dc:format>image/svg+xml</dc:format>
<dc:type rdf:resource="http://purl.org/dc/dcmitype/StillImage"/>
</cc:Work>
</rdf:RDF>
</metadata>
<defs>
<linearGradient id="b" y2="215.0088" xlink:href="#d" gradientUnits="userSpaceOnUse" x2="18.70757" gradientTransform="matrix(3.494239,0,0,1.325753,957.3304,243.8052)" y1="218.5568" x1="20.10132"/>
<linearGradient id="c" y2="209.2774" gradientUnits="userSpaceOnUse" x2="14.01084" gradientTransform="matrix(2.8752 0 0 .854533 980.2863 352.892)" y1="203.3658" x1="10.04167">
<stop stop-color="#5a5a5a" offset="0"/>
<stop offset="1"/>
</linearGradient>
<linearGradient id="d">
<stop stop-color="#fff" offset="0"/>
<stop stop-color="#98b6d3" offset="1"/>
</linearGradient>
<linearGradient id="a" y2="220.3475" xlink:href="#d" gradientUnits="userSpaceOnUse" x2="18.5289" gradientTransform="matrix(2.629849 0 0 .794339 973.2757 359.133)" y1="213.6631" x1="15.24248"/>
</defs>
<g transform="matrix(0,1,1,0,-528,-1066)">
<rect style="color:#000000" height="24" width="24" y="528" x="982" stroke-width=".531496" fill="none"/>
<g stroke-linejoin="round" stroke-miterlimit="0" transform="translate(56.00235 .0124335)">
<rect style="color:#000000" height="5.980974" width="22.99783" stroke="url(#c)" y="528.5066" x="1010.5" stroke-width="1.000002" fill="none"/>
<rect style="color:#000000" fill-rule="evenodd" height="3.982274" width="20.96796" stroke="url(#a)" stroke-linecap="round" y="529.5177" x="1011.52" stroke-width="1.000003" fill="url(#b)"/>
</g>
<g stroke-linejoin="round" stroke-miterlimit="0" transform="translate(56.000184 7.9934095)">
<rect style="color:#000000" height="5.980974" width="22.99783" stroke="url(#c)" y="528.5066" x="1010.5" stroke-width="1.000002" fill="none"/>
<rect style="color:#000000" fill-rule="evenodd" height="3.982274" width="20.96796" stroke="url(#a)" stroke-linecap="round" y="529.5177" x="1011.52" stroke-width="1.000003" fill="url(#b)"/>
</g>
<g stroke-linejoin="round" stroke-miterlimit="0" transform="translate(56.000184 15.993414)">
<rect style="color:#000000" height="5.980974" width="22.99783" stroke="url(#c)" y="528.5066" x="1010.5" stroke-width="1.000002" fill="none"/>
<rect style="color:#000000" fill-rule="evenodd" height="3.982274" width="20.96796" stroke="url(#a)" stroke-linecap="round" y="529.5177" x="1011.52" stroke-width="1.000003" fill="url(#b)"/>
</g>
</g>
</svg>
