<?xml version="1.0" encoding="UTF-8" standalone="no"?>
<svg xmlns:rdf="http://www.w3.org/1999/02/22-rdf-syntax-ns#" xmlns="http://www.w3.org/2000/svg" version="1.1" xmlns:cc="http://creativecommons.org/ns#" viewBox="0 0 12.019308 12.019308" xmlns:dc="http://purl.org/dc/elements/1.1/">
<metadata>
<rdf:RDF>
<cc:Work rdf:about="">
<dc:format>image/svg+xml</dc:format>
<dc:type rdf:resource="http://purl.org/dc/dcmitype/StillImage"/>
</cc:Work>
</rdf:RDF>
</metadata>
<g transform="matrix(.5008045 0 0 .5008045 55.08849 -90.14481)">
<rect height="24" width="24" y="180" x="-110" fill="none"/>
<rect stroke-linejoin="round" fill-rule="evenodd" fill-opacity=".3921569" height="5.996136" width="6.117705" stroke="#f00" stroke-linecap="round" stroke-miterlimit="0" y="181.7348" x="-108.2691" stroke-width="1.9967862" fill="#f00"/>
<path stroke-linejoin="round" d="m-104.982 185.0571 10.19893 18.1231 6.79927-6.7961-16.9982-11.327z" fill-rule="evenodd" stroke="#fff" stroke-linecap="round" stroke-width=".9983935"/>
</g>
</svg>
