<?xml version="1.0" encoding="UTF-8" standalone="no"?>
<svg xmlns:rdf="http://www.w3.org/1999/02/22-rdf-syntax-ns#" xmlns="http://www.w3.org/2000/svg" version="1.1" xmlns:cc="http://creativecommons.org/ns#" xmlns:xlink="http://www.w3.org/1999/xlink" viewBox="0 0 16 16" xmlns:dc="http://purl.org/dc/elements/1.1/">
<metadata>
<rdf:RDF>
<cc:Work rdf:about="">
<dc:format>image/svg+xml</dc:format>
<dc:type rdf:resource="http://purl.org/dc/dcmitype/StillImage"/>
</cc:Work>
</rdf:RDF>
</metadata>
<defs>
<linearGradient id="b" y2="217.2552" xlink:href="#a" gradientUnits="userSpaceOnUse" x2="173.0313" gradientTransform="matrix(1.102855,0,0,1.148517,-175.0966,-238.3557)" y1="207.7552" x1="161.2865"/>
<linearGradient id="e">
<stop stop-color="#fffdf8" offset="0"/>
<stop stop-color="#cdccc7" offset="1"/>
</linearGradient>
<linearGradient id="c" y2="218.5416" xlink:href="#e" gradientUnits="userSpaceOnUse" x2="173.724" gradientTransform="matrix(1.102855,0,0,1.148517,-174.5451,-237.7814)" y1="209.14059" x1="163.85941"/>
<linearGradient id="a">
<stop stop-color="#5a5a5a" offset="0"/>
<stop offset="1"/>
</linearGradient>
<linearGradient id="d" y2="213" xlink:href="#a" gradientUnits="userSpaceOnUse" x2="176" gradientTransform="translate(-157.4999,-207.5)" y1="213" x1="160"/>
</defs>
<g transform="translate(0)">
<rect stroke-linejoin="round" height="16" width="16" stroke-linecap="square" stroke-dasharray="1, 1" y="0" x="0" fill="none"/>
<path stroke-linejoin="round" d="m12.5 15.5h-10v-14" fill-rule="evenodd" stroke-dashoffset=".5" stroke="url(#b)" stroke-dasharray="1, 1" fill="url(#c)"/>
<path stroke-linejoin="round" d="m2.5 1.5v-1h7l4 4v11h-1" fill-rule="evenodd" stroke="url(#b)" stroke-linecap="square" fill="url(#c)"/>
<path d="m3 14.5h9.5" stroke-dashoffset="1" stroke="#c8c8c8" stroke-dasharray="1, 1" fill="none"/>
<path d="m12.5 14.5v-9" stroke="#c8c8c8" stroke-linecap="square" stroke-width="1px" fill="none"/>
<path stroke-linejoin="round" d="m9.5 0.5 4 4h-4v-4z" fill-rule="evenodd" stroke="url(#d)" stroke-linecap="round" stroke-width="1px" fill="#fff"/>
</g>
</svg>
