<?xml version="1.0" encoding="UTF-8" standalone="no"?>
<svg xmlns:rdf="http://www.w3.org/1999/02/22-rdf-syntax-ns#" xmlns="http://www.w3.org/2000/svg" version="1.1" xmlns:cc="http://creativecommons.org/ns#" xmlns:xlink="http://www.w3.org/1999/xlink" viewBox="0 0 16.042173 16" xmlns:dc="http://purl.org/dc/elements/1.1/">
<metadata>
<rdf:RDF>
<cc:Work rdf:about="">
<dc:format>image/svg+xml</dc:format>
<dc:type rdf:resource="http://purl.org/dc/dcmitype/StillImage"/>
</cc:Work>
</rdf:RDF>
</metadata>
<defs>
<radialGradient id="a" cx="234.355" gradientUnits="userSpaceOnUse" cy="542.529" r="62.3947" gradientTransform="matrix(1 0 0 .263368 0 365.571)">
<stop stop-color="#fff" offset="0"/>
<stop stop-color="#fff" stop-opacity="0" offset="1"/>
</radialGradient>
<radialGradient id="b" cx="234.355" gradientUnits="userSpaceOnUse" cy="542.529" r="62.3947" gradientTransform="matrix(1 0 0 .263368 0 365.571)">
<stop offset="0"/>
<stop stop-opacity="0" offset="1"/>
</radialGradient>
<linearGradient id="c" y2="536.965" gradientUnits="userSpaceOnUse" x2="217.426" gradientTransform="matrix(.117347 0 0 .117347 252.7175 248.3363)" y1="536.767" x1="263.478">
<stop stop-color="#afafaf" offset="0"/>
<stop stop-color="#e6e6e6" offset="1"/>
</linearGradient>
</defs>
<g transform="translate(-271.95783,-304)">
<path opacity=".909" stroke-linejoin="round" d="m272.415 308.6281c0.094-3.3143 5.6445-3.5094 7.46-3.5204 1.9957-0.012 7.3463 0.2617 7.4598 3.4365l-6.0191 6.2866v4.1909c-1.4294 0.465-1.6006 0.5246-2.9496 0v-4.1909z" stroke-dashoffset="10" stroke="#000" stroke-linecap="round" stroke-width=".9143469" fill="url(#c)"/>
<ellipse opacity=".909" stroke-linejoin="round" stroke-linecap="round" stroke-dashoffset="10" rx="60.6092" transform="matrix(.115021 0 0 .1903986 253.0723 212.7017)" stroke="url(#a)" ry="14.6472" cy="496.273" cx="234.355" stroke-width="3.5711801" fill="url(#b)"/>
<rect height="16" width="16" y="304" x="272" fill="none"/>
</g>
</svg>
