<?xml version="1.0" encoding="UTF-8" standalone="no"?>
<svg xmlns:rdf="http://www.w3.org/1999/02/22-rdf-syntax-ns#" xmlns="http://www.w3.org/2000/svg" version="1.1" xmlns:cc="http://creativecommons.org/ns#" xmlns:xlink="http://www.w3.org/1999/xlink" viewBox="0 0 24.065848 24.007398" xmlns:dc="http://purl.org/dc/elements/1.1/">
<metadata>
<rdf:RDF>
<cc:Work rdf:about="">
<dc:format>image/svg+xml</dc:format>
<dc:type rdf:resource="http://purl.org/dc/dcmitype/StillImage"/>
</cc:Work>
</rdf:RDF>
</metadata>
<defs>
<linearGradient id="b" y2="118.6402" gradientUnits="userSpaceOnUse" x2="95.75075" gradientTransform="matrix(.97755 -.211918 .218379 1.018965 -62.10329 4.028774)" y1="121.4717" x1="99.27937">
<stop stop-color="#376796" offset="0"/>
<stop stop-color="#b0dde2" offset="1"/>
</linearGradient>
<linearGradient id="c" y2="109.4688" xlink:href="#a" gradientUnits="userSpaceOnUse" x2="48.80305" y1="98.27665" x1="44.28383"/>
<linearGradient id="d" y2="279.6869" xlink:href="#a" gradientUnits="userSpaceOnUse" x2="501.1567" gradientTransform="matrix(1,0,0,1.005747,-444.4008,-168.4784)" y1="276.5925" x1="497.1992"/>
<linearGradient id="a">
<stop stop-color="#5a5a5a" offset="0"/>
<stop offset="1"/>
</linearGradient>
<linearGradient id="e" y2="275.9288" gradientUnits="userSpaceOnUse" x2="498.0183" gradientTransform="matrix(1,0,0,1.005747,-443,-167.4216)" y1="278.6932" x1="501.3698">
<stop stop-color="#ffbf00" offset="0"/>
<stop stop-color="#fff" offset="1"/>
</linearGradient>
</defs>
<g transform="matrix(1 0 0 .994286 -40 -98.42544)">
<path stroke-linejoin="round" d="m54.74801 112.7209-2.02196 5.3521c-0.41924 1.2317 1.29973 1.89 1.73578 0.6129l2.07236-5.2546" fill-rule="evenodd" fill-opacity=".75" stroke="#000" stroke-linecap="round" stroke-width="1.2034432" fill="#fff"/>
<path fill-rule="evenodd" fill="url(#b)" d="m53.30533 107.4469 0.79348 1.188 5.92422 2.4368 1.5611-0.5121 1.98917-5.534c-2.5 0-0.5-6.03453-7-6.03453l-3.26797 8.45583z"/>
<path stroke-linejoin="round" d="m54.2095 108.7548-0.91109 3.3199 5 1.9101 1.91507-3.0918" fill-rule="evenodd" stroke="url(#d)" stroke-linecap="round" stroke-width="1.0028694px" fill="url(#e)"/>
<path stroke-linejoin="round" d="m63.5733 105.5284-1.73917 4.3275c-0.23117 0.7551-1.18676 1.3635-1.67929 1.0399-1.81427-1.1919-3.78289-2.0079-5.98567-2.2653-0.42201-0.0493-0.90938-1.1851-0.71897-1.691l3.1231-7.44555" stroke="#000" stroke-linecap="round" stroke-width=".9850955" fill="none"/>
<rect style="color:#000000" height="24" width="24" y="99" x="40" fill="none"/>
<path d="m44.54642 120.6114c12.45358-1.9994-2.3382-20.1013-2.3382-20.1013h11.79178" stroke="url(#c)" stroke-width="1.0057468" fill="none"/>
<path stroke-linejoin="round" style="color:#000000" d="m40.5625 118.5995h3.9375v4.0355h-3.9375v-4.0355zm4.47596 3.0298h5.46154m0-1.0303h2.01365v2.036h-2.01365v-2.036z" fill-rule="evenodd" stroke="#000" stroke-linecap="round" stroke-width="1.0028691" fill="#fff"/>
<path fill="none" d="m53 112.5776 4.5 2.0115 1.5-3.0173-4.5-1.5086-1.5 2.5144z"/>
<path d="m56 106.5431 2.5-6.0345" stroke="#fff" stroke-linecap="round" stroke-width="1.0028694px" fill="none"/>
</g>
</svg>
