<?xml version="1.0" encoding="UTF-8" standalone="no"?>
<svg xmlns:rdf="http://www.w3.org/1999/02/22-rdf-syntax-ns#" xmlns="http://www.w3.org/2000/svg" version="1.1" xmlns:cc="http://creativecommons.org/ns#" viewBox="0 0 16 16" xmlns:dc="http://purl.org/dc/elements/1.1/">
<metadata>
<rdf:RDF>
<cc:Work rdf:about="">
<dc:format>image/svg+xml</dc:format>
<dc:type rdf:resource="http://purl.org/dc/dcmitype/StillImage"/>
</cc:Work>
</rdf:RDF>
</metadata>
<g transform="translate(45,-175)">
<path stroke-linejoin="round" d="m-44.20553 190.1345 13.48723-13.7005" stroke="#5a5a5a" stroke-linecap="round" stroke-miterlimit="0" fill="none"/>
<rect style="color:#000000" height="16" width="16" y="175" x="-45" fill="none"/>
<rect stroke-linejoin="round" style="color:#000000" fill-rule="evenodd" fill-opacity=".3921569" height="2.558726" width="2.550238" stroke="#d40000" stroke-linecap="round" stroke-miterlimit="0" y="185.1907" x="-41.81641" stroke-width=".6444077" fill="#ff2100"/>
<rect stroke-linejoin="round" style="color:#000000" fill-rule="evenodd" fill-opacity=".3921569" transform="translate(6.040428 -6.111492)" height="2.558726" width="2.550238" stroke="#d40000" stroke-linecap="round" stroke-miterlimit="0" y="185.1907" x="-41.81641" stroke-width=".6444077" fill="#ff2100"/>
</g>
</svg>
