<?xml version="1.0" encoding="UTF-8" standalone="no"?>
<svg xmlns:rdf="http://www.w3.org/1999/02/22-rdf-syntax-ns#" xmlns="http://www.w3.org/2000/svg" version="1.1" xmlns:cc="http://creativecommons.org/ns#" viewBox="0 0 14.334814 14.009079" xmlns:dc="http://purl.org/dc/elements/1.1/">
<metadata>
<rdf:RDF>
<cc:Work rdf:about="">
<dc:format>image/svg+xml</dc:format>
<dc:type rdf:resource="http://purl.org/dc/dcmitype/StillImage"/>
</cc:Work>
</rdf:RDF>
</metadata>
<g transform="translate(-644.22509,-88.189921)">
<path stroke-linejoin="bevel" d="m658.0599 95.55848c0 0.80381-0.1598 1.60731-0.4674 2.34994-0.3076 0.74262-0.7628 1.4238-1.3311 1.99217-0.5683 0.56841-1.2494 1.02351-1.9918 1.33111-0.7424 0.3075-1.5456 0.4673-2.3489 0.4673-0.8033-0.0001-1.6061-0.1599-2.348-0.4676-0.7419-0.3076-1.4222-0.7628-1.9898-1.33116-0.5676-0.56838-1.0221-1.2495-1.3292-1.99207-0.3071-0.74256-0.4667-1.54597-0.4667-2.34969 0-0.80373 0.1596-1.60714 0.4667-2.3497s0.7616-1.42369 1.3292-1.99207c0.5676-0.56837 1.2479-1.02353 1.9898-1.33117s1.5447-0.46752 2.348-0.46757c0.8033-0.00004 1.6065 0.15974 2.3489 0.46731 0.7424 0.30758 1.4235 0.76271 1.9918 1.33108 0.5683 0.56838 1.0235 1.24955 1.3311 1.99218 0.3076 0.74262 0.4674 1.54612 0.4674 2.34994" stroke-dashoffset="23.200001" stroke="#5a5a5a" stroke-linecap="square" stroke-miterlimit="4.27" fill="none"/>
<rect stroke-linejoin="round" style="color:#000000" fill-rule="evenodd" fill-opacity=".39215692" transform="translate(690.7581,-96.67858)" height="2.5587261" width="2.5502379" stroke="#d40000" stroke-linecap="round" stroke-miterlimit="0" y="185.1907" x="-41.81641" stroke-width=".64440769" fill="#ff2100"/>
<rect stroke-linejoin="round" style="color:#000000" fill-rule="evenodd" fill-opacity=".39215692" transform="translate(686.3637,-90.33765)" height="2.5587261" width="2.5502379" stroke="#d40000" stroke-linecap="round" stroke-miterlimit="0" y="185.1907" x="-41.81641" stroke-width=".64440769" fill="#ff2100"/>
<rect stroke-linejoin="round" style="color:#000000" fill-rule="evenodd" fill-opacity=".39215692" transform="translate(697.4319,-87.13558)" height="2.5587261" width="2.5502379" stroke="#d40000" stroke-linecap="round" stroke-miterlimit="0" y="185.1907" x="-41.81641" stroke-width=".64440769" fill="#ff2100"/>
</g>
</svg>
