<?xml version="1.0" encoding="UTF-8" standalone="no"?>
<svg xmlns:rdf="http://www.w3.org/1999/02/22-rdf-syntax-ns#" xmlns="http://www.w3.org/2000/svg" version="1.1" xmlns:cc="http://creativecommons.org/ns#" viewBox="0 0 17.587414 17.329245" xmlns:dc="http://purl.org/dc/elements/1.1/">
<metadata>
<rdf:RDF>
<cc:Work rdf:about="">
<dc:format>image/svg+xml</dc:format>
<dc:type rdf:resource="http://purl.org/dc/dcmitype/StillImage"/>
</cc:Work>
</rdf:RDF>
</metadata>
<g transform="matrix(.6666666 0 0 .6666666 73.33333 -119.99999)">
<rect style="color:#000000" height="24" width="24" y="180" x="-110" fill="none"/>
<path stroke-linejoin="round" d="m-85.93689 200.106l-19.27191-10.1248 7.87184-6.5308-4.40444 20.2338 12.56783-11.1304" stroke="#646464" stroke-linecap="round" stroke-width="2.2500002" fill="none"/>
<rect stroke-linejoin="round" style="color:#000000" fill-rule="evenodd" fill-opacity=".3921569" height="2.996397" width="2.995161" stroke="#6464ff" stroke-linecap="round" stroke-miterlimit="0" y="198.8744" x="-86.98862" stroke-width=".7491586" fill="#6464ff"/>
<rect stroke-linejoin="round" style="color:#000000" fill-rule="evenodd" fill-opacity=".3921569" height="2.996397" width="2.995161" stroke="#6464ff" stroke-linecap="round" stroke-miterlimit="0" y="190.5354" x="-90.29251" stroke-width=".7491586" fill="#6464ff"/>
<rect stroke-linejoin="round" style="color:#000000" fill-rule="evenodd" fill-opacity=".3921569" height="2.996397" width="2.995161" stroke="#6464ff" stroke-linecap="round" stroke-miterlimit="0" y="181.5116" x="-98.65125" stroke-width=".7491586" fill="#6464ff"/>
<rect stroke-linejoin="round" style="color:#000000" fill-rule="evenodd" fill-opacity=".3921569" height="2.996397" width="2.995161" stroke="#6464ff" stroke-linecap="round" stroke-miterlimit="0" y="188.5146" x="-106.7003" stroke-width=".7491586" fill="#6464ff"/>
<rect stroke-linejoin="round" style="color:#000000" fill-rule="evenodd" fill-opacity=".3921569" height="2.996397" width="2.995161" stroke="#6464ff" stroke-linecap="round" stroke-miterlimit="0" y="202.6229" x="-103.3954" stroke-width=".7491586" fill="#6464ff"/>
</g>
</svg>
