<?xml version="1.0" encoding="UTF-8" standalone="no"?>
<svg xmlns:rdf="http://www.w3.org/1999/02/22-rdf-syntax-ns#" xmlns="http://www.w3.org/2000/svg" version="1.1" xmlns:cc="http://creativecommons.org/ns#" viewBox="0 0 17.032087 11.23537" xmlns:dc="http://purl.org/dc/elements/1.1/">
<metadata>
<rdf:RDF>
<cc:Work rdf:about="">
<dc:format>image/svg+xml</dc:format>
<dc:type rdf:resource="http://purl.org/dc/dcmitype/StillImage"/>
</cc:Work>
</rdf:RDF>
</metadata>
<path stroke-linejoin="round" style="color:#000000" d="m887.0928 67.57225c-2.0587-0.26142-3.7811-2.06568-3.9403-4.13574-0.2323-2.06273 1.1189-4.16029 3.0929-4.80202 1.9506-0.71096 4.3057 0.11085 5.3951 1.87722 0.6818 1.02879 0.8348 2.31056 0.6716 3.51285-0.1753 1.20282 0.3156 2.52456 1.3984 3.14493 1.3484 0.86475 3.329 0.33453 4.065-1.08834 0.8134-1.38006 0.2089-3.33927-1.2407-4.02117" transform="translate(-882.12533,-57.370976)" stroke="#00f" stroke-linecap="round" stroke-width="2" fill="none"/>
</svg>
