<?xml version="1.0" encoding="UTF-8" standalone="no"?>
<svg xmlns:rdf="http://www.w3.org/1999/02/22-rdf-syntax-ns#" xmlns="http://www.w3.org/2000/svg" version="1.1" xmlns:cc="http://creativecommons.org/ns#" viewBox="0 0 10.842432 22.351573" xmlns:dc="http://purl.org/dc/elements/1.1/">
<metadata>
<rdf:RDF>
<cc:Work rdf:about="">
<dc:format>image/svg+xml</dc:format>
<dc:type rdf:resource="http://purl.org/dc/dcmitype/StillImage"/>
</cc:Work>
</rdf:RDF>
</metadata>
<g stroke-linejoin="round" stroke="#000" stroke-width="3.8300321" transform="matrix(1,0,0,1.090725,-644.45428,-130.56949)" fill="none">
<path style="color:#000000" d="m646.3693 119.7089v20.4924"/>
<path style="color:#000000" d="m653.3817 119.7089v20.4924"/>
</g>
</svg>
