<?xml version="1.0" encoding="UTF-8" standalone="no"?>
<svg xmlns:rdf="http://www.w3.org/1999/02/22-rdf-syntax-ns#" xmlns="http://www.w3.org/2000/svg" version="1.1" xmlns:cc="http://creativecommons.org/ns#" viewBox="0 0 12 12.000007" xmlns:dc="http://purl.org/dc/elements/1.1/">
<metadata>
<rdf:RDF>
<cc:Work rdf:about="">
<dc:format>image/svg+xml</dc:format>
<dc:type rdf:resource="http://purl.org/dc/dcmitype/StillImage"/>
</cc:Work>
</rdf:RDF>
</metadata>
<g transform="translate(-673,-245)">
<path stroke-linejoin="round" d="m673.5 248.5h4c2.5 0 3.5 1 3.5 3.3" stroke="#000" stroke-linecap="round" stroke-width="1px" fill="none"/>
<path stroke-linejoin="round" d="m673.5 245.5h5.5c3.5 0 5.5 2 5.5 5" stroke="#000" stroke-linecap="round" stroke-width="1.0000004px" fill="none"/>
<g transform="matrix(.695835 0 0 .741921 207.1801 63.71)">
<path fill-rule="evenodd" d="m682.3742 253.7871v2.6957h-2.8742v1.3479h2.8742v2.6957l4.3114-3.3696-4.3114-3.3697z"/>
<path d="m505.9072 37.19576h1.4371" transform="translate(170,219.961)" stroke="#000" stroke-linecap="square" stroke-width="1.391772px" fill="none"/>
<path d="m672.3144 257.1568h1.4371" stroke="#000" stroke-width="1.391772px" fill="none"/>
</g>
</g>
</svg>
