<?xml version="1.0" encoding="UTF-8"?>
<svg width="672" height="160" version="1.1" viewBox="0 0 672 160.00001" xmlns="http://www.w3.org/2000/svg">
<path transform="matrix(3.7795276,0,0,3.7795276,648.16139,-1305.5287)" d="m-141.4764 377.3132c-1.96102 5.08778 0.51519-6.99066-4.86386-6.5292s6.93036 15.07119 0.93475 14.39578-3.25476-12.76196-9.04185-12.13531c-5.78708 0.62664-0.79775 7.04194-6.38241 5.46227s12.99141-8.47168 8.05555-11.56361c-4.93587-3.09193-11.67828 13.92029-12.01711 7.88271s9.91512-6.21492 9.66231-12.10987c-0.2528-5.89495-16.37661 8.58159-13.77772 3.42245 2.59888-5.15914 9.62378 4.1567 12.18466 0.0474s-12.37274-12.165-7.74219-14.55468c4.63054-2.38967 7.0283 9.72575 12.91618 8.99916 5.88789-0.72658-5.28159-13.16107 0.18553-12.64137 5.46713 0.5197-5.47433 14.8714-0.61646 14.76123 4.85787-0.11018 8.4309-13.52646 13.23775-12.17216 4.80685 1.35429-9.62352 3.92844-5.89615 8.26045 3.72738 4.33201 10.96789-4.25879 12.01711 1.13217s-9.38871-3.72591-9.99999 1.38148c-0.61129 5.10738 7.81553 0.31583 5.7441 5.67819-2.07143 5.36237-8.66721-7.03347-12.67964-2.99078-4.01243 4.0427 10.04045 8.1859 8.07944 13.27368z" fill="#00d400" fill-rule="evenodd" style="paint-order:normal"/>
<path transform="matrix(3.7795276,0,0,3.7795276,-191.75736,-1247.747)" d="m129.56749 364.97188c-2.68291 2.68291-6.69728-11.40256-9.56887-8.92265s10.47928 8.50236 7.43433 10.76605c-3.04495 2.26368-4.96568-12.25619-8.16775-10.22081-3.20206 2.03538 9.12966 9.93755 5.78756 11.73376s-3.12825-12.84858-6.59255-11.30112c-3.46429 1.54746 7.58545 11.16094 4.01744 12.4514-3.56802 1.29045-1.22415-13.16714-4.87684-12.14058-3.65269 1.02657 5.87956 12.14645 2.16168 12.90365s0.70605-13.20505-3.05718-12.72126 4.04837 12.87308 0.25986 13.08088 2.6212-12.96154-1.17237-13.03083c-3.79357-0.0693 2.13089 13.32534-1.64751 12.97932-3.77839-0.34603 4.48048-12.44176 0.73743-13.06267-3.74305-0.6209 0.168 13.4936-3.51975 12.60113-3.68775-0.89248 6.24427-11.65681 2.63151-12.81609-3.61276-1.15929-1.79848 13.37426-5.31698 11.95436-3.5185-1.41991 7.87497-10.62341 4.4695-12.29637-3.40547-1.67295-3.72662 12.96988-7.00089 11.05281-3.27426-1.91707 9.33783-9.36359 6.21224-11.51456-3.1256-2.15096-5.57534 12.28907-8.53558 9.91569-2.96025-2.37338 10.60167-7.90422 7.82256-10.48735-2.7791-2.58313-7.30522 11.34633-9.88835 8.56723-2.583137-2.77911 11.63955-6.27637 9.26617-9.23661-2.37338-2.96025-8.87941 10.16176-11.030378 7.03617-2.150964-3.12559 12.429358-4.51475 10.512288-7.78901-1.91707-3.27427-10.26435 8.76062-11.937305 5.35515-1.672952-3.40547 12.954255-2.65691 11.534355-6.17541-1.41991-3.5185-11.430529 7.17276-12.589813 3.56s13.203063-0.74243 12.310583-4.43018-12.35308 5.43203-12.973987 1.68897c-0.620908-3.74305 13.170457 1.18786 12.824437-2.59053-0.34603-3.7784-13.012351 3.57551-13.081649-0.21806-0.0693-3.79357 12.857149 3.09283 13.064949-0.69568s-13.394274 1.6428-12.910485-2.12043c0.48379-3.76323 12.269815 4.93189 13.027015 1.21401s-13.490732-0.32493-12.464167-3.97762 11.420977 6.66583 12.711427 3.09782c1.29046-3.56801-13.299655-2.28574-11.752193-5.75003 1.547461-3.4643 10.328713 8.2577 12.124923 4.91561 1.79621-3.3421-12.825123-4.19782-10.789747-7.39989 2.035377-3.20207 9.016317 9.67358 11.279997 6.62863 2.26368-3.04496-12.077245-6.02044-9.59733-8.89203 2.47991-2.87159 7.51174 10.88327 10.19465 8.20036 2.68291-2.6829-11.07196-7.71474-8.20037-10.19465s5.84708 11.86102 8.89203 9.59733c3.04495-2.26368-9.83069-9.24461-6.62863-11.27999 3.20207-2.03538 4.05779 12.58596 7.39989 10.78975s-8.3799-10.57747-4.91561-12.12493c3.4643-1.54746 2.18202 13.04266 5.75003 11.7522s-6.75051-11.68487-3.09782-12.71143c3.65269-1.02657 0.25974 13.22136 3.97762 12.46417 3.71788-0.7572-4.97724-12.54323-1.21401-13.02702 3.76324-0.48379-1.66807 13.11829 2.12044 12.91049s-3.0979-13.13425 0.69567-13.06495c3.79358 0.0693-3.56033 12.73562 0.21806 13.08164 3.77839 0.34603-1.15252-13.44534 2.59054-12.82443 3.74305 0.62091-5.37672 12.08151-1.68898 12.97399 3.68775 0.89247 0.81743-13.46987 4.43019-12.31059 3.61276 1.15929-7.0785 11.16991-3.56 12.58981 3.5185 1.41991 2.76994-13.2073 6.1754-11.53435 3.40547 1.67295-8.62942 10.02024-5.35515 11.93731s4.66342-12.66326 7.78901-10.51229c3.1256 2.15096-9.99641 8.657-7.03617 11.03038 2.96025 2.37338 6.45751-11.84931 9.23661-9.26618s-11.15036 7.10926-8.56722 9.88836c2.58313 2.7791 8.11396-10.78281 10.48734-7.82257 2.37338 2.96025-12.06665 5.40999-9.91568 8.53558 2.15096 3.1256 9.59748-9.4865 11.51456-6.21223 1.91707 3.27426-12.72576 3.59542-11.05281 7.00088 1.67295 3.40547 10.87645-7.988 12.29636-4.4695s-13.11364 1.70422-11.95436 5.31698c1.15929 3.61276 11.92361-6.31925 12.81609-2.6315 0.89248 3.68774-13.22203-0.22331-12.60112 3.51975 0.6209 3.74305 12.71663-4.51582 13.06266-0.73743s-13.04862-2.14607-12.97932 1.6475 13.23863-2.61613 13.03083 1.17237c-0.2078 3.78851-12.59709-4.02309-13.08088-0.25985-0.48379 3.76323 13.47846-0.6607 12.72127 3.05718-0.7572 3.71788-11.87709-5.81437-12.90365-2.16168-1.02657 3.65269 13.43103 1.30882 12.14057 4.87683s-10.90393-7.48173-12.45139-4.01743c-1.54747 3.4643 13.09733 3.25045 11.30112 6.59255-1.79621 3.34209-9.69839-8.98963-11.73377-5.78756-2.03537 3.20207 12.48449 5.1228 10.22081 8.16775s-8.28613-10.30592-10.76604-7.43433 11.60556 6.88596 8.92265 9.56886z" fill="#00d400" fill-rule="evenodd" style="paint-order:normal"/>
<path transform="matrix(3.7795276,0,0,3.7795276,-185.39986,-1247.747)" d="m158.07804 331.99768c1.05558-0.0904 3.46507 3.09567 4.50806 3.2816s4.40498-1.97125 5.36431-1.52171 1.453 4.41346 2.26329 5.09597c0.81029 0.68252 4.80045 0.49535 5.40648 1.36433 0.60604 0.86897-0.94839 4.54866-0.58792 5.54488 0.36048 0.99622 3.90964 2.82921 4 3.88478 0.0904 1.05557-3.09567 3.46506-3.2816 4.50806-0.18593 1.04299 1.97124 4.40498 1.5217 5.36431-0.44953 0.95933-4.41345 1.453-5.09597 2.26329-0.68251 0.81029-0.49534 4.80045-1.36432 5.40648-0.86898 0.60604-4.54866-0.94839-5.54489-0.58792-0.99622 0.36048-2.8292 3.90964-3.88477 3.99999-1.05558 0.0904-3.46507-3.09566-4.50806-3.28159s-4.40498 1.97124-5.36431 1.5217-1.453-4.41345-2.26329-5.09597c-0.81029-0.68251-4.80045-0.49534-5.40648-1.36432-0.60604-0.86898 0.94839-4.54867 0.58791-5.54489-0.36047-0.99622-3.90963-2.8292-3.99999-3.88477-0.0904-1.05558 3.09567-3.46507 3.2816-4.50806s-1.97124-4.40498-1.52171-5.36431c0.44954-0.95933 4.41346-1.453 5.09598-2.26329 0.68251-0.8103 0.49534-4.80045 1.36432-5.40648 0.86897-0.60604 4.54866 0.94839 5.54488 0.58791 0.99623-0.36047 2.82921-3.90963 3.88478-3.99999z" fill="#00d400" fill-rule="evenodd" style="paint-order:normal"/>
<path transform="matrix(3.7795276,0,0,3.7795276,-179.04236,-1247.747)" d="m201.89484 332.73484c-7.77067-0.70165-12.71632 35.47558-5.02931 36.81177 7.8716 1.36827 21.06746-30.55884 14.53552-35.1597-6.37877-4.49298-28.75044 24.36459-22.76139 29.36527 6.13287 5.12076 33.52437-15.931 30.16798-23.18143-3.27769-7.08042-37.08091 6.72513-34.39458 14.05038 2.75084 7.50114 36.99846 2.96553 37.71695-4.99172 0.70165-7.77067-35.47557-12.71632-36.81176-5.0293-1.36828 7.87159 30.55883 21.06745 35.15969 14.53551 4.49299-6.37877-24.36459-28.75044-29.36527-22.76138-5.12076 6.13286 15.931 33.52436 23.18143 30.16797 7.08043-3.27768-6.72513-37.08091-14.05038-34.39457-7.50113 2.75083-2.96553 36.99845 4.99172 37.71695 7.77067 0.70165 12.71632-35.47558 5.02931-36.81177-7.8716-1.36827-21.06746 30.55883-14.53552 35.1597 6.37877 4.49298 28.75044-24.36459 22.76139-29.36528-6.13287-5.12075-33.52437 15.931-30.16798 23.18144 3.27769 7.08042 37.08091-6.72514 34.39458-14.05038-2.75084-7.50114-36.99846-2.96554-37.71695 4.99172-0.70166 7.77067 35.47557 12.71632 36.81176 5.0293 1.36828-7.87159-30.55883-21.06745-35.15969-14.53552-4.49299 6.37877 24.36459 28.75045 29.36527 22.76139 5.12075-6.13286-15.931-33.52437-23.18143-30.16798-7.08043 3.27769 6.72513 37.08091 14.05038 34.39458 7.50113-2.75084 2.96553-36.99845-4.99172-37.71695z" fill="#00d400" fill-rule="evenodd" style="paint-order:normal"/>
</svg>
